<svg class="lds-wave" width="200px"  height="200px"  xmlns="http://www.w3.org/2000/svg" xmlns:xlink="http://www.w3.org/1999/xlink" viewBox="0 0 100 100" preserveAspectRatio="xMidYMid" style="background: none;"><circle cx="22" cy="47.6172" ng-attr-r="{{config.radius}}" fill="#ccc" r="2">
  <animate attributeName="cy" values="46;54;46" times="0;0.5;1" dur="1s" calcMode="spline" keySplines="0.5 0 0.5 1;0.5 0 0.5 1" begin="0s" repeatCount="indefinite"></animate>
</circle><circle cx="27" cy="46.3382" ng-attr-r="{{config.radius}}" fill="#ddd" r="2">
  <animate attributeName="cy" values="46;54;46" times="0;0.5;1" dur="1s" calcMode="spline" keySplines="0.5 0 0.5 1;0.5 0 0.5 1" begin="-0.08333333333333333s" repeatCount="indefinite"></animate>
</circle><circle cx="32" cy="46" ng-attr-r="{{config.radius}}" fill="#eee" r="2">
  <animate attributeName="cy" values="46;54;46" times="0;0.5;1" dur="1s" calcMode="spline" keySplines="0.5 0 0.5 1;0.5 0 0.5 1" begin="-0.16666666666666666s" repeatCount="indefinite"></animate>
</circle><circle cx="37" cy="46.3382" ng-attr-r="{{config.radius}}" fill="#fff" r="2">
  <animate attributeName="cy" values="46;54;46" times="0;0.5;1" dur="1s" calcMode="spline" keySplines="0.5 0 0.5 1;0.5 0 0.5 1" begin="-0.25s" repeatCount="indefinite"></animate>
</circle><circle cx="42" cy="47.6172" ng-attr-r="{{config.radius}}" fill="#ccc" r="2">
  <animate attributeName="cy" values="46;54;46" times="0;0.5;1" dur="1s" calcMode="spline" keySplines="0.5 0 0.5 1;0.5 0 0.5 1" begin="-0.3333333333333333s" repeatCount="indefinite"></animate>
</circle><circle cx="47" cy="50" ng-attr-r="{{config.radius}}" fill="#ddd" r="2">
  <animate attributeName="cy" values="46;54;46" times="0;0.5;1" dur="1s" calcMode="spline" keySplines="0.5 0 0.5 1;0.5 0 0.5 1" begin="-0.4166666666666667s" repeatCount="indefinite"></animate>
</circle><circle cx="52" cy="52.3828" ng-attr-r="{{config.radius}}" fill="#eee" r="2">
  <animate attributeName="cy" values="46;54;46" times="0;0.5;1" dur="1s" calcMode="spline" keySplines="0.5 0 0.5 1;0.5 0 0.5 1" begin="-0.5s" repeatCount="indefinite"></animate>
</circle><circle cx="57" cy="53.6618" ng-attr-r="{{config.radius}}" fill="#fff" r="2">
  <animate attributeName="cy" values="46;54;46" times="0;0.5;1" dur="1s" calcMode="spline" keySplines="0.5 0 0.5 1;0.5 0 0.5 1" begin="-0.5833333333333334s" repeatCount="indefinite"></animate>
</circle><circle cx="62" cy="54" ng-attr-r="{{config.radius}}" fill="#ccc" r="2">
  <animate attributeName="cy" values="46;54;46" times="0;0.5;1" dur="1s" calcMode="spline" keySplines="0.5 0 0.5 1;0.5 0 0.5 1" begin="-0.6666666666666666s" repeatCount="indefinite"></animate>
</circle><circle cx="67" cy="53.6618" ng-attr-r="{{config.radius}}" fill="#ddd" r="2">
  <animate attributeName="cy" values="46;54;46" times="0;0.5;1" dur="1s" calcMode="spline" keySplines="0.5 0 0.5 1;0.5 0 0.5 1" begin="-0.75s" repeatCount="indefinite"></animate>
</circle><circle cx="72" cy="52.3828" ng-attr-r="{{config.radius}}" fill="#eee" r="2">
  <animate attributeName="cy" values="46;54;46" times="0;0.5;1" dur="1s" calcMode="spline" keySplines="0.5 0 0.5 1;0.5 0 0.5 1" begin="-0.8333333333333334s" repeatCount="indefinite"></animate>
</circle><circle cx="77" cy="50" ng-attr-r="{{config.radius}}" fill="#fff" r="2">
  <animate attributeName="cy" values="46;54;46" times="0;0.5;1" dur="1s" calcMode="spline" keySplines="0.5 0 0.5 1;0.5 0 0.5 1" begin="-0.9166666666666666s" repeatCount="indefinite"></animate>
</circle></svg>